{
  "formatVersion": 1,
  "database": {
    "version": 1,
    "identityHash": "8135300510b6a1315f4a3d52a598c469",
    "entities": [
      {
        "tableName": "instrumented_packages",
        "createSql": "CREATE TABLE IF NOT EXISTS `${TABLE_NAME}` (`package_name` TEXT NOT NULL, `last_instrumentation_timestamp` INTEGER NOT NULL, `keep_instrumented` INTEGER NOT NULL, PRIMARY KEY(`package_name`))",
        "fields": [
          {
            "fieldPath": "packageName",
            "columnName": "package_name",
            "affinity": "TEXT",
            "notNull": true
          },
          {
            "fieldPath": "lastInstrumentationTimestamp",
            "columnName": "last_instrumentation_timestamp",
            "affinity": "INTEGER",
            "notNull": true
          },
          {
            "fieldPath": "keepInstrumented",
            "columnName": "keep_instrumented",
            "affinity": "INTEGER",
            "notNull": true
          }
        ],
        "primaryKey": {
          "columnNames": [
            "package_name"
          ],
          "autoGenerate": false
        },
        "indices": [],
        "foreignKeys": []
      }
    ],
    "setupQueries": [
      "CREATE TABLE IF NOT EXISTS room_master_table (id INTEGER PRIMARY KEY,identity_hash TEXT)",
      "INSERT OR REPLACE INTO room_master_table (id,identity_hash) VALUES(42, \"8135300510b6a1315f4a3d52a598c469\")"
    ]
  }
}